{
  "ETag": "E3NYNW5CGLZ5WL",
  "DistributionConfig": {
    "CallerReference": "1481620502787",
    "Aliases": {
      "Quantity": 2,
      "Items": [
        "www.appzet.com",
        "appzet.com"
      ]
    },









    "DefaultRootObject": "index.html",
    "Origins": {
      "Quantity": 1,
      "Items": [
        {
          "Id": "S3-www.appzet.com",
          "DomainName": "www.appzet.com.s3.amazonaws.com",
          "OriginPath": "",
          "CustomHeaders": {
            "Quantity": 0,
            "Items": []
          },
          "S3OriginConfig": {
            "OriginAccessIdentity": ""
          }
        }
      ]
    },



    "DefaultCacheBehavior": {
      "ForwardedValues": {
        "QueryString": false,
        "Cookies": {
          "Forward": "none"
        },
        "Headers": {
          "Quantity": 1,
          "Items": [
            "Origin"
          ]
        },
        "QueryStringCacheKeys": {
          "Quantity": 0,
          "Items": []
        }
      },
      "TargetOriginId": "S3-www.appzet.com",

      "TrustedSigners": {
        "Enabled": false,
        "Quantity": 0,
        "Items": []
      },

      "ViewerProtocolPolicy": "redirect-to-https",
      "MinTTL": 0,
      "AllowedMethods": {
        "Quantity": 7,
        "Items": [
          "HEAD",
          "DELETE",
          "POST",
          "GET",
          "OPTIONS",
          "PUT",
          "PATCH"
        ],
        "CachedMethods": {
          "Quantity": 2,
          "Items": [
            "HEAD",
            "GET"
          ]
        }
      },
      "SmoothStreaming": false,
      "DefaultTTL": 0,
      "MaxTTL": 0,
      "Compress": false,
      "LambdaFunctionAssociations": {
        "Quantity": 0,
        "Items": []
      }
    },


    "CacheBehaviors": {
      "Quantity": 0,
      "Items": []
    },
    "CustomErrorResponses": {
      "Quantity": 2,
      "Items": [
        {
          "ErrorCode": 403,
          "ResponsePagePath": "/index.html",
          "ResponseCode": "200",
          "ErrorCachingMinTTL": 0
        },
        {
          "ErrorCode": 404,
          "ResponsePagePath": "/index.html",
          "ResponseCode": "200",
          "ErrorCachingMinTTL": 0
        }
      ]
    },


    "Comment": "",

    "Logging": {
      "Enabled": true,
      "IncludeCookies": true,
      "Bucket": "appzet-logs.s3.amazonaws.com",
      "Prefix": "www"
    },
    "PriceClass": "PriceClass_All",
    "Enabled": true,
    "ViewerCertificate": {
      "ACMCertificateArn": "arn:aws:acm:us-east-1:457182576479:certificate/75866533-a274-4045-956e-7f492b992555",
      "SSLSupportMethod": "sni-only",
      "MinimumProtocolVersion": "TLSv1",
      "Certificate": "arn:aws:acm:us-east-1:457182576479:certificate/75866533-a274-4045-956e-7f492b992555",
      "CertificateSource": "acm"
    },
    "Restrictions": {
      "GeoRestriction": {
        "RestrictionType": "none",
        "Quantity": 0,
        "Items": []
      }
    },
    "WebACLId": "",
    "HttpVersion": "http2",
    "IsIPV6Enabled": false
  }
}